…
```r
best_final <- finalize_workflow(rf_wkflow, best_rf)

best_final_fit <- fit(best_final, data = Pokémon_test)
```

Print the AUC value of your best-performing model on the testing set. Print the ROC curves. Finally, create and visualize a confusion matrix heat map.


```r
augment(best_final_fit, new_data = Pokémon_test, metric = 'roc_auc')
```

```
## # A tibble: 140 × 20
##    number name      type_1 type_2 total    hp attack defense sp_atk sp_def speed
##     <dbl> <chr>     <fct>  <chr>  <dbl> <dbl>  <dbl>   <dbl>  <dbl>  <dbl> <dbl>
##  1      3 Venusaur… Grass  Poison   625    80    100     123    122    120    80
##  2      6 Charizar… Fire   Flying   634    78    104      78    159    115   100
##  3      7 Squirtle  Water  <NA>     314    44     48      65     50     64    43
##  4      9 Blastoise Water  <NA>     530    79     83     100     85    105    78
##  5     12 Butterfr… Bug    Flying   395    60     45      50     90     80    70
##  6     14 Kakuna    Bug    Poison   205    45     25      50     25     25    35
##  7     15 Beedrill  Bug    Poison   395    65     90      40     45     80    75
##  8     15 Beedrill… Bug    Poison   495    65    150      40     15     80   145
##  9     18 Pidgeot   Normal Flying   479    83     80      75     70     70   101
## 10     18 PidgeotM… Normal Flying   579    83     80      80    135     80   121
## # … with 130 more rows, and 9 more variables: generation <fct>,
## #   legendary <fct>, .pred_class <fct>, .pred_Bug <dbl>, .pred_Fire <dbl>,
## #   .pred_Grass <dbl>, .pred_Normal <dbl>, .pred_Psychic <dbl>,
## #   .pred_Water <dbl>
```
…
```r
abalone_final <- finalize_workflow(abalone_wkflow, best_abalone)

abalone_final_fit <- fit(abalone_final, data = abalone_train)

augment(abalone_final_fit, new_data = abalone_test, metric = 'rmse')
```

```
## # A tibble: 837 × 11
##    type  longest_shell diameter height whole_weight shucked_weight
##    <chr>         <dbl>    <dbl>  <dbl>        <dbl>          <dbl>
##  1 F             0.545    0.425  0.125        0.768          0.294
##  2 M             0.43     0.35   0.11         0.406          0.168
##  3 M             0.5      0.4    0.13         0.664          0.258
##  4 F             0.56     0.44   0.14         0.928          0.382
##  5 M             0.58     0.47   0.165        0.998          0.394
##  6 F             0.68     0.55   0.175        1.80           0.815
##  7 F             0.54     0.475  0.155        1.22           0.530
##  8 M             0.355    0.29   0.09         0.328          0.134
##  9 F             0.45     0.335  0.105        0.425          0.186
## 10 F             0.55     0.425  0.135        0.852          0.362
## # … with 827 more rows, and 5 more variables: viscera_weight <dbl>,
## #   shell_weight <dbl>, rings <dbl>, age <dbl>, .pred <dbl>
```
…
